mp01 – STA9750 2024 Submission Materials
…
# creates USAGE_2022_ANNUAL
USAGE_2022_ANNUAL <- USAGE |>
  group_by(`NTD ID`, month, Agency, metro_area, Mode) |>
  summarize(
    UPT = sum(UPT, na.rm = TRUE),
    VRM = sum(VRM, na.rm = TRUE)
  ) |>
  ungroup()

`summarise()` has grouped output by 'NTD ID', 'month', 'Agency', 'metro_area'.
You can override using the `.groups` argument.

USAGE_2022_ANNUAL

# A tibble: 256,803 × 7
   `NTD ID` month      Agency      metro_area          Mode           UPT    VRM
   <chr>    <date>     <chr>       <chr>               <chr>        <dbl>  <dbl>
 1 00001    2002-01-01 King County Seattle--Tacoma, WA Demand Res… 1.35e5 7.46e5
 2 00001    2002-01-01 King County Seattle--Tacoma, WA Motorbus    6.05e6 2.88e6
 3 00001    2002-01-01 King County Seattle--Tacoma, WA Trolleybus  2.04e6 3.15e5
 4 00001    2002-01-01 King County Seattle--Tacoma, WA Vanpool     1.74e5 8.67e5
 5 00001    2002-02-01 King County Seattle--Tacoma, WA Demand Res… 1.27e5 6.56e5
 6 00001    2002-02-01 King County Seattle--Tacoma, WA Motorbus    5.41e6 2.56e6
 7 00001    2002-02-01 King County Seattle--Tacoma, WA Trolleybus  1.84e6 2.81e5
 8 00001    2002-02-01 King County Seattle--Tacoma, WA Vanpool     1.50e5 7.49e5
 9 00001    2002-03-01 King County Seattle--Tacoma, WA Demand Res… 1.36e5 7.27e5
10 00001    2002-03-01 King County Seattle--Tacoma, WA Motorbus    6.00e6 2.84e6
# ℹ 256,793 more rows
…
# We are now merging the USAGE_2022_ANNUAL and FINANCIALS tables
USAGE_AND_FINANCIALS <- left_join(USAGE_2022_ANNUAL, 
                                  FINANCIALS, join_by(`NTD ID`, Mode)) |>
     drop_na()

USAGE_AND_FINANCIALS

# A tibble: 217,734 × 10
   `NTD ID` month      Agency       metro_area Mode     UPT    VRM `Agency Name`
   <chr>    <date>     <chr>        <chr>      <chr>  <dbl>  <dbl> <chr>        
 1 10001    2002-01-01 Rhode Islan… Providenc… Dema… 2.47e3  12633 Rhode Island…
 2 10001    2002-01-01 Rhode Islan… Providenc… Moto… 1.20e6 602260 Rhode Island…
 3 10001    2002-02-01 Rhode Islan… Providenc… Dema… 2.17e3  11914 Rhode Island…
 4 10001    2002-02-01 Rhode Islan… Providenc… Moto… 1.10e6 565261 Rhode Island…
 5 10001    2002-03-01 Rhode Islan… Providenc… Dema… 2.59e3  13643 Rhode Island…
 6 10001    2002-03-01 Rhode Islan… Providenc… Moto… 1.22e6 609770 Rhode Island…
 7 10001    2002-04-01 Rhode Islan… Providenc… Dema… 2.87e3  15138 Rhode Island…
 8 10001    2002-04-01 Rhode Islan… Providenc… Moto… 1.11e6 613565 Rhode Island…
 9 10001    2002-05-01 Rhode Islan… Providenc… Dema… 2.68e3  15163 Rhode Island…
10 10001    2002-05-01 Rhode Islan… Providenc… Moto… 9.24e5 620087 Rhode Island…
# ℹ 217,724 more rows
# ℹ 2 more variables: `Total Fares` <dbl>, Expenses <dbl>
…
