project11.2.24 – STA9750 2024 Submission Materials
…
Average Wait Time Analysis by Line

Code

# Aggregate platform time data by line and COVID period
platform_time_trend <- MTAdata |>
  group_by(LINE, COVID_FLAG) |>
  summarise(avg_platform_time = mean(ADDL_PLATFORM_TIME, na.rm = TRUE)) |>
  ungroup()

# Print the summary data
print(platform_time_trend)

# A tibble: 72 × 3
   LINE  COVID_FLAG avg_platform_time
   <chr> <chr>                  <dbl>
 1 1     COVID                  1.00 
 2 1     Post-COVID             1.12 
 3 1     Pre-COVID              1.00 
 4 2     COVID                  1.32 
 5 2     Post-COVID             1.36 
 6 2     Pre-COVID              1.23 
 7 3     COVID                  1.14 
 8 3     Post-COVID             1.09 
 9 3     Pre-COVID              0.911
10 4     COVID                  1.13 
# ℹ 62 more rows
…
